excluder • excluder
…
To unite all of the marked columns into a single column, use the unite_exclusions() function. This will create a new exclusions columns that will unite all exclusions in each observation into a single column. Here we move the combined exclusions column to the beginning of the data frame to view it.

df %>%
  mark_preview() %>%
  mark_duration(min = 500) %>%
  unite_exclusions() %>%
  dplyr::relocate(exclusions, .before = StartDate)
#> ℹ 2 rows were collected as previews. It is highly recommended to exclude these rows before further processing.
#> ℹ 82 out of 100 rows took less time than 500.
#> # A tibble: 100 × 17
#>    exclusions  StartDate           EndDate             Status IPAddress Progress
#>    <chr>       <dttm>              <dttm>              <chr>  <chr>        <dbl>
#>  1 "preview,d… 2020-12-11 12:06:52 2020-12-11 12:10:30 Surve… NA             100
#>  2 "preview"   2020-12-11 12:06:43 2020-12-11 12:11:27 Surve… NA             100
#>  3 ""          2020-12-11 12:17:22 2020-12-11 12:21:41 IP Ad… 73.23.43…      100
#>  4 "duration_… 2020-12-11 12:17:41 2020-12-11 12:22:07 IP Ad… 16.140.1…      100
#>  5 "duration_… 2020-12-11 12:19:45 2020-12-11 12:23:16 IP Ad… 107.57.2…      100
#>  6 "duration_… 2020-12-11 12:37:51 2020-12-11 12:43:09 IP Ad… 15.232.1…      100
#>  7 "duration_… 2020-12-11 12:41:23 2020-12-11 12:44:37 IP Ad… 24.195.9…      100
#>  8 ""          2020-12-11 12:37:04 2020-12-11 12:45:50 IP Ad… 98.75.20…      100
#>  9 "duration_… 2020-12-11 12:55:35 2020-12-11 12:59:24 IP Ad… 51.113.1…      100
#> 10 "duration_… 2020-12-11 13:22:34 2020-12-11 13:35:19 IP Ad… 17.163.1…      100
#> # ℹ 90 more rows
#> # ℹ 11 more variables: `Duration (in seconds)` <dbl>, Finished <lgl>,
#> #   RecordedDate <dttm>, ResponseId <chr>, LocationLatitude <dbl>,
#> #   LocationLongitude <dbl>, UserLanguage <chr>, Browser <chr>, Version <chr>,
#> #   `Operating System` <chr>, Resolution <chr>

Multiple exclusions are separated by , by default, but the separating character can be controlled by the separator argument. By default, the multiple exclusion columns are removed from the final data frame, but this can be turned off by setting the remove argument to FALSE.

df %>%
  mark_preview() %>%
  mark_duration(min = 500) %>%
  unite_exclusions(separator = ";", remove = FALSE) %>%
  dplyr::relocate(exclusions, .before = StartDate)
#> ℹ 2 rows were collected as previews. It is highly recommended to exclude these rows before further processing.
#> ℹ 82 out of 100 rows took less time than 500.
#> # A tibble: 100 × 19
#>    exclusions  StartDate           EndDate             Status IPAddress Progress
#>    <chr>       <dttm>              <dttm>              <chr>  <chr>        <dbl>
#>  1 "preview;d… 2020-12-11 12:06:52 2020-12-11 12:10:30 Surve… NA             100
#>  2 "preview"   2020-12-11 12:06:43 2020-12-11 12:11:27 Surve… NA             100
#>  3 ""          2020-12-11 12:17:22 2020-12-11 12:21:41 IP Ad… 73.23.43…      100
#>  4 "duration_… 2020-12-11 12:17:41 2020-12-11 12:22:07 IP Ad… 16.140.1…      100
#>  5 "duration_… 2020-12-11 12:19:45 2020-12-11 12:23:16 IP Ad… 107.57.2…      100
#>  6 "duration_… 2020-12-11 12:37:51 2020-12-11 12:43:09 IP Ad… 15.232.1…      100
#>  7 "duration_… 2020-12-11 12:41:23 2020-12-11 12:44:37 IP Ad… 24.195.9…      100
#>  8 ""          2020-12-11 12:37:04 2020-12-11 12:45:50 IP Ad… 98.75.20…      100
#>  9 "duration_… 2020-12-11 12:55:35 2020-12-11 12:59:24 IP Ad… 51.113.1…      100
#> 10 "duration_… 2020-12-11 13:22:34 2020-12-11 13:35:19 IP Ad… 17.163.1…      100
#> # ℹ 90 more rows
#> # ℹ 13 more variables: `Duration (in seconds)` <dbl>, Finished <lgl>,
#> #   RecordedDate <dttm>, ResponseId <chr>, LocationLatitude <dbl>,
#> #   LocationLongitude <dbl>, UserLanguage <chr>, Browser <chr>, Version <chr>,
#> #   `Operating System` <chr>, Resolution <chr>, exclusion_preview <chr>,
#> #   exclusion_duration <chr>
…
To check all data for multiple criteria, use the mark_*() functions followed by a filter.

# Check for multiple criteria
df %>%
  mark_preview() %>%
  mark_duration(min = 500) %>%
  unite_exclusions() %>%
  dplyr::filter(exclusions != "")
#> ℹ 2 rows were collected as previews. It is highly recommended to exclude these rows before further processing.
#> ℹ 82 out of 100 rows took less time than 500.
#> # A tibble: 83 × 17
#>    StartDate           EndDate             Status         IPAddress    Progress
#>    <dttm>              <dttm>              <chr>          <chr>           <dbl>
#>  1 2020-12-11 12:06:52 2020-12-11 12:10:30 Survey Preview NA                100
#>  2 2020-12-11 12:06:43 2020-12-11 12:11:27 Survey Preview NA                100
#>  3 2020-12-11 12:17:41 2020-12-11 12:22:07 IP Address     16.140.105.0      100
#>  4 2020-12-11 12:19:45 2020-12-11 12:23:16 IP Address     107.57.244.0      100
#>  5 2020-12-11 12:37:51 2020-12-11 12:43:09 IP Address     15.232.167.0      100
#>  6 2020-12-11 12:41:23 2020-12-11 12:44:37 IP Address     24.195.91.0       100
#>  7 2020-12-11 12:55:35 2020-12-11 12:59:24 IP Address     51.113.171.0      100
#>  8 2020-12-11 13:22:34 2020-12-11 13:35:19 IP Address     17.163.199.0      100
#>  9 2020-12-11 16:59:08 2020-12-11 17:02:05 IP Address     84.56.189.0       100
#> 10 2020-12-11 17:02:00 2020-12-11 17:03:30 IP Address     70.203.63.0       100
#> # ℹ 73 more rows
#> # ℹ 12 more variables: `Duration (in seconds)` <dbl>, Finished <lgl>,
#> #   RecordedDate <dttm>, ResponseId <chr>, LocationLatitude <dbl>,
#> #   LocationLongitude <dbl>, UserLanguage <chr>, Browser <chr>, Version <chr>,
#> #   `Operating System` <chr>, Resolution <chr>, exclusions <chr>
…
Note that exclude_*() functions have the mark_*() messages turned off by default and produce their own messages about exclusions. To silence these messages, set silent to TRUE.

# Turn off exclusion messages with silent = TRUE
df %>%
  exclude_preview(silent = TRUE) %>%
  exclude_progress(silent = TRUE) %>%
  exclude_duplicates(silent = TRUE)
#> # A tibble: 83 × 16
#>    StartDate           EndDate             Status     IPAddress    Progress
#>    <dttm>              <dttm>              <chr>      <chr>           <dbl>
#>  1 2020-12-11 12:17:22 2020-12-11 12:21:41 IP Address 73.23.43.0        100
#>  2 2020-12-11 12:17:41 2020-12-11 12:22:07 IP Address 16.140.105.0      100
#>  3 2020-12-11 12:19:45 2020-12-11 12:23:16 IP Address 107.57.244.0      100
#>  4 2020-12-11 12:37:51 2020-12-11 12:43:09 IP Address 15.232.167.0      100
#>  5 2020-12-11 12:37:04 2020-12-11 12:45:50 IP Address 98.75.201.0       100
#>  6 2020-12-11 12:55:35 2020-12-11 12:59:24 IP Address 51.113.171.0      100
#>  7 2020-12-11 13:22:34 2020-12-11 13:35:19 IP Address 17.163.199.0      100
#>  8 2020-12-11 16:59:08 2020-12-11 17:02:05 IP Address 84.56.189.0       100
#>  9 2020-12-11 17:02:00 2020-12-11 17:03:30 IP Address 70.203.63.0       100
#> 10 2020-12-11 17:01:32 2020-12-11 17:09:41 IP Address 33.185.89.0       100
#> # ℹ 73 more rows
#> # ℹ 11 more variables: `Duration (in seconds)` <dbl>, Finished <lgl>,
#> #   RecordedDate <dttm>, ResponseId <chr>, LocationLatitude <dbl>,
#> #   LocationLongitude <dbl>, UserLanguage <chr>, Browser <chr>, Version <chr>,
#> #   `Operating System` <chr>, Resolution <chr>
…
